Les essentiels de la data science
…
---
## Exemple

```r
elections %>% 
  group_by(ZE2010) %>% 
  summarise_at(vars(Inscrits, Abstentions, Votants, Blancs, Nuls, Exprimés, `LE PEN`:CHEMINADE), funs(sum(.)))
```

```
## # A tibble: 305 x 18
##    ZE2010 Inscrits Abstentions Votants Blancs  Nuls Exprimés `LE PEN`
##     <chr>    <int>       <int>   <int>  <int> <int>    <int>    <int>
##  1   0050   121799       21231  100568   2051   918    97599    18901
##  2   0051    86349       15302   71047   1314   438    69295    15926
##  3   0052    57124       12084   45040    786   436    43818    11943
##  4   0053   104365       20689   83676   1719   690    81267    18395
##  5   0054    35635        6336   29299    506   186    28607     7590
##  6   0055    76458       14717   61741   1313   550    59878    19641
##  7   0056  1000098      238264  761834  13718  5552   742564   155891
##  8   0057   146393       26366  120027   2584  1442   116001    20371
##  9   0059   367063       72659  294404   4947  1857   287600    87968
## 10   0060   434913       93470  341443   6785  2343   332315    80238
## # ... with 295 more rows, and 10 more variables: MÉLENCHON <int>,
## #   MACRON <int>, FILLON <int>, LASSALLE <int>, `DUPONT-AIGNAN` <int>,
## #   HAMON <int>, ASSELINEAU <int>, POUTOU <int>, ARTHAUD <int>,
## #   CHEMINADE <int>
```

---
## Exemple

```r
elections %>% 
  group_by(ZE2010) %>% 
  summarise_at(vars(Inscrits, Abstentions, Votants, Blancs, Nuls, Exprimés, `LE PEN`:CHEMINADE), funs(sum(.))) %>% 
  mutate_at(vars(`LE PEN`:CHEMINADE), funs(. / Inscrits * 100))
```

```
## # A tibble: 305 x 18
##    ZE2010 Inscrits Abstentions Votants Blancs  Nuls Exprimés `LE PEN`
##     <chr>    <int>       <int>   <int>  <int> <int>    <int>    <dbl>
##  1   0050   121799       21231  100568   2051   918    97599 15.51819
##  2   0051    86349       15302   71047   1314   438    69295 18.44376
##  3   0052    57124       12084   45040    786   436    43818 20.90715
##  4   0053   104365       20689   83676   1719   690    81267 17.62564
##  5   0054    35635        6336   29299    506   186    28607 21.29928
##  6   0055    76458       14717   61741   1313   550    59878 25.68861
##  7   0056  1000098      238264  761834  13718  5552   742564 15.58757
##  8   0057   146393       26366  120027   2584  1442   116001 13.91528
##  9   0059   367063       72659  294404   4947  1857   287600 23.96537
## 10   0060   434913       93470  341443   6785  2343   332315 18.44921
## # ... with 295 more rows, and 10 more variables: MÉLENCHON <dbl>,
## #   MACRON <dbl>, FILLON <dbl>, LASSALLE <dbl>, `DUPONT-AIGNAN` <dbl>,
## #   HAMON <dbl>, ASSELINEAU <dbl>, POUTOU <dbl>, ARTHAUD <dbl>,
## #   CHEMINADE <dbl>
```
…
- `bind_rows`
- `bind_cols`

---
## Tips & tricks dplyr

```r
ZE2010 %>% 
  group_by(LIBZE2010) %>% 
  summarise(n = n()) %>% 
  arrange(desc(n))
```

```
## # A tibble: 321 x 2
##                LIBZE2010     n
##                    <chr> <int>
##  1              Toulouse   716
##  2                Amiens   478
##  3                 Rouen   473
##  4      Tarbes - Lourdes   451
##  5                Troyes   449
##  6                 Dijon   447
##  7              Besançon   420
##  8              Bordeaux   408
##  9                 Nancy   395
## 10 Roissy - Sud Picardie   393
## # ... with 311 more rows
```

---
## Tips & tricks dplyr

```r
ZE2010 %>% 
  count(LIBZE2010, sort = TRUE)
```

```
## # A tibble: 321 x 2
##                LIBZE2010     n
##                    <chr> <int>
##  1              Toulouse   716
##  2                Amiens   478
##  3                 Rouen   473
##  4      Tarbes - Lourdes   451
##  5                Troyes   449
##  6                 Dijon   447
##  7              Besançon   420
##  8              Bordeaux   408
##  9                 Nancy   395
## 10 Roissy - Sud Picardie   393
## # ... with 311 more rows
```
…
Numéroter les communes par ordre décroissant de vote Le Pen dans le département

```r
elections %>% 
  group_by(CodeDepartement) %>% 
  arrange(desc(`LE PEN_exp`)) %>% 
  mutate(numero = 1:n()) %>% 
  ungroup %>% 
  arrange(desc(`LE PEN_exp`)) %>% 
  select(CodeInsee, Commune, Département, numero, `LE PEN_exp`)
```

```
## # A tibble: 35,496 x 5
##    CodeInsee       Commune         Département numero `LE PEN_exp`
##        <chr>         <chr>               <chr>  <int>        <dbl>
##  1     52066       Brachay         Haute-Marne      1     83.72093
##  2     ZP051      Tatakoto Polynésie française      1     74.78261
##  3     10044  Bétignicourt                Aube      1     74.07407
##  4     02043       Bagneux               Aisne      1     72.22222
##  5     ZP041          Rapa Polynésie française      2     70.29703
##  6     52201 Flammerécourt         Haute-Marne      2     69.04762
##  7     88298     Ménarmont              Vosges      1     66.66667
##  8     ZP030        Napuka Polynésie française      3     66.66667
##  9     08184         Fromy            Ardennes      1     66.07143
## 10     25552       Sourans               Doubs      1     65.59140
## # ... with 35,486 more rows
```
…
